{
  "images" : [
    {
      "idiom" : "universal",
      "scale" : "1x"
    },
    {
      "idiom" : "universal",
      "scale" : "2x",
      "filename" : "启动页-ios.png"
    },
    {
      "idiom" : "universal",
      "scale" : "3x",
      "filename" : "iphone6-plus.png"
    }
  ],
  "info" : {
    "version" : 1,
    "author" : "xcode"
  }
}